{
    "name": "InputMaster",
    "maps": [
        {
            "name": "Ship",
            "id": "fc255736-f09f-4b29-82c2-87294b318c7b",
            "actions": [
                {
                    "name": "YawAndPitch",
                    "type": "Value",
                    "id": "b31f3a95-5ba5-4901-870b-d58ad0c20214",
                    "expectedControlType": "Dpad",
                    "processors": "",
                    "interactions": ""
                },
                {
                    "name": "Roll",
                    "type": "Value",
                    "id": "35503efe-53c9-4f09-81a9-b10c8e06905a",
                    "expectedControlType": "Axis",
                    "processors": "",
                    "interactions": ""
                }
            ],
            "bindings": [
                {
                    "name": "WSAD",
                    "id": "0a1e446e-0ab9-44d5-8127-5824d1fb1553",
                    "path": "2DVector",
                    "interactions": "",
                    "processors": "",
                    "groups": "",
                    "action": "YawAndPitch",
                    "isComposite": true,
                    "isPartOfComposite": false
                },
                {
                    "name": "up",
                    "id": "86017b27-8d87-4555-ada7-29a20c56d0d2",
                    "path": "<Keyboard>/w",
                    "interactions": "",
                    "processors": "",
                    "groups": "MouseAndKeyboard",
                    "action": "YawAndPitch",
                    "isComposite": false,
                    "isPartOfComposite": true
                },
                {
                    "name": "down",
                    "id": "71de16d1-d778-4c1a-8c92-e51d9b2323a5",
                    "path": "<Keyboard>/s",
                    "interactions": "",
                    "processors": "",
                    "groups": "MouseAndKeyboard",
                    "action": "YawAndPitch",
                    "isComposite": false,
                    "isPartOfComposite": true
                },
                {
                    "name": "left",
                    "id": "11f4591b-9aac-4227-b7b1-547a853e6a00",
                    "path": "<Keyboard>/a",
                    "interactions": "",
                    "processors": "",
                    "groups": "MouseAndKeyboard",
                    "action": "YawAndPitch",
                    "isComposite": false,
                    "isPartOfComposite": true
                },
                {
                    "name": "right",
                    "id": "338f2c3c-f63b-49f8-b1f4-29fd719fc86a",
                    "path": "<Keyboard>/d",
                    "interactions": "",
                    "processors": "",
                    "groups": "MouseAndKeyboard",
                    "action": "YawAndPitch",
                    "isComposite": false,
                    "isPartOfComposite": true
                },
                {
                    "name": "1D Axis",
                    "id": "691946c8-94f7-4b6e-b462-7bd0d7a940ee",
                    "path": "1DAxis",
                    "interactions": "",
                    "processors": "",
                    "groups": "",
                    "action": "Roll",
                    "isComposite": true,
                    "isPartOfComposite": false
                },
                {
                    "name": "negative",
                    "id": "7823f844-34fe-400c-8488-061c8ad767ab",
                    "path": "<Keyboard>/q",
                    "interactions": "",
                    "processors": "",
                    "groups": "MouseAndKeyboard",
                    "action": "Roll",
                    "isComposite": false,
                    "isPartOfComposite": true
                },
                {
                    "name": "positive",
                    "id": "63f854ce-4ef3-405e-96f2-9f39b2d1950c",
                    "path": "<Keyboard>/e",
                    "interactions": "",
                    "processors": "",
                    "groups": "MouseAndKeyboard",
                    "action": "Roll",
                    "isComposite": false,
                    "isPartOfComposite": true
                }
            ]
        }
    ],
    "controlSchemes": [
        {
            "name": "MouseAndKeyboard",
            "bindingGroup": "MouseAndKeyboard",
            "devices": [
                {
                    "devicePath": "<Keyboard>",
                    "isOptional": false,
                    "isOR": false
                },
                {
                    "devicePath": "<Mouse>",
                    "isOptional": false,
                    "isOR": false
                }
            ]
        }
    ]
}